M48
;Layer_Color=9474304
;FILE_FORMAT=4:4
METRIC,LZ
;TYPE=PLATED
T2F00S00C0.6000
T6F00S00C1.0000
%
G90
G05
T02
X0032305Y0045845G85X0032905
X0036235Y0045845G85X0037335
X0036235Y0054485G85X0037335
X0032305Y0054485G85X0032905
T06
X0042163Y0095155G85Y0093155
X0045863Y0091155G85X0047863
X0045863Y0097155G85X0047863
M30
