%TF.GenerationSoftware,Altium Limited,Altium Designer,22.11.1 (43)*%
G04 Layer_Color=16711935*
%FSLAX45Y45*%
%MOMM*%
%TF.SameCoordinates,8C2380D2-A491-45FC-B3AC-E9A0C34562FB*%
%TF.FilePolarity,Negative*%
%TF.FileFunction,Soldermask,Bot*%
%TF.Part,Single*%
G01*
G75*
%TA.AperFunction,SMDPad,CuDef*%
%ADD77O,1.70320X2.20320*%
%ADD78R,1.70320X1.20320*%
%ADD79O,2.20320X1.70320*%
%ADD80R,1.40320X1.60320*%
%ADD81R,1.60320X1.40320*%
%ADD82R,0.82320X1.40320*%
%ADD83R,1.60320X1.38320*%
%TA.AperFunction,ComponentPad*%
%ADD84R,3.70320X3.70320*%
G04:AMPARAMS|DCode=85|XSize=3.2032mm|YSize=3.7032mm|CornerRadius=0.4766mm|HoleSize=0mm|Usage=FLASHONLY|Rotation=270.000|XOffset=0mm|YOffset=0mm|HoleType=Round|Shape=RoundedRectangle|*
%AMROUNDEDRECTD85*
21,1,3.20320,2.75000,0,0,270.0*
21,1,2.25000,3.70320,0,0,270.0*
1,1,0.95320,-1.37500,-1.12500*
1,1,0.95320,-1.37500,1.12500*
1,1,0.95320,1.37500,1.12500*
1,1,0.95320,1.37500,-1.12500*
%
%ADD85ROUNDEDRECTD85*%
G04:AMPARAMS|DCode=86|XSize=3.7032mm|YSize=3.7032mm|CornerRadius=0.5391mm|HoleSize=0mm|Usage=FLASHONLY|Rotation=270.000|XOffset=0mm|YOffset=0mm|HoleType=Round|Shape=RoundedRectangle|*
%AMROUNDEDRECTD86*
21,1,3.70320,2.62500,0,0,270.0*
21,1,2.62500,3.70320,0,0,270.0*
1,1,1.07820,-1.31250,-1.31250*
1,1,1.07820,-1.31250,1.31250*
1,1,1.07820,1.31250,1.31250*
1,1,1.07820,1.31250,-1.31250*
%
%ADD86ROUNDEDRECTD86*%
%ADD87C,1.72720*%
%ADD88R,1.72720X1.72720*%
%ADD89O,1.50320X1.80320*%
%ADD90R,1.50320X1.80320*%
%ADD91O,1.80320X1.50320*%
%ADD92R,1.80320X1.50320*%
%ADD93O,1.60020X1.98120*%
%ADD94C,4.96320*%
%ADD95R,1.89320X1.89320*%
%ADD96C,1.89320*%
%ADD97C,4.70320*%
%ADD98C,1.80320*%
G04:AMPARAMS|DCode=99|XSize=1.2032mm|YSize=1.8032mm|CornerRadius=0.6016mm|HoleSize=0mm|Usage=FLASHONLY|Rotation=270.000|XOffset=0mm|YOffset=0mm|HoleType=Round|Shape=RoundedRectangle|*
%AMROUNDEDRECTD99*
21,1,1.20320,0.60000,0,0,270.0*
21,1,0.00000,1.80320,0,0,270.0*
1,1,1.20320,-0.30000,0.00000*
1,1,1.20320,-0.30000,0.00000*
1,1,1.20320,0.30000,0.00000*
1,1,1.20320,0.30000,0.00000*
%
%ADD99ROUNDEDRECTD99*%
G04:AMPARAMS|DCode=100|XSize=1.2032mm|YSize=2.3032mm|CornerRadius=0.6016mm|HoleSize=0mm|Usage=FLASHONLY|Rotation=270.000|XOffset=0mm|YOffset=0mm|HoleType=Round|Shape=RoundedRectangle|*
%AMROUNDEDRECTD100*
21,1,1.20320,1.10000,0,0,270.0*
21,1,0.00000,2.30320,0,0,270.0*
1,1,1.20320,-0.55000,0.00000*
1,1,1.20320,-0.55000,0.00000*
1,1,1.20320,0.55000,0.00000*
1,1,1.20320,0.55000,0.00000*
%
%ADD100ROUNDEDRECTD100*%
%ADD101C,0.85320*%
D77*
X10972800Y10236200D02*
D03*
X10744200D02*
D03*
X10515600D02*
D03*
X10617200Y7188200D02*
D03*
Y5981700D02*
D03*
X9779000Y4699000D02*
D03*
X10363200D02*
D03*
X8559800D02*
D03*
X9169400D02*
D03*
D78*
X11255000Y9460000D02*
D03*
Y9140000D02*
D03*
X11745000D02*
D03*
Y9460000D02*
D03*
X11255000Y8460000D02*
D03*
Y8140000D02*
D03*
X11745000D02*
D03*
Y8460000D02*
D03*
D79*
X11328400Y6781800D02*
D03*
Y7391400D02*
D03*
Y6172200D02*
D03*
Y5588000D02*
D03*
X7467600Y6019800D02*
D03*
X7112000D02*
D03*
X6781800Y6908800D02*
D03*
X7061200D02*
D03*
X7848600Y6019800D02*
D03*
X10160000Y5384800D02*
D03*
X8966200Y5410200D02*
D03*
D80*
X10157460Y7480300D02*
D03*
X9928860D02*
D03*
X9928260Y7229640D02*
D03*
X10156860D02*
D03*
X9359900Y8305800D02*
D03*
X9588500D02*
D03*
X9116060Y7810500D02*
D03*
X8887460D02*
D03*
X9116060Y7556500D02*
D03*
X8887460D02*
D03*
X9105900Y7188200D02*
D03*
X8877300D02*
D03*
X9931400Y7823200D02*
D03*
X10160000D02*
D03*
X9118600Y8204200D02*
D03*
X8890000D02*
D03*
X7315200Y4641840D02*
D03*
X7086600D02*
D03*
X7683500Y4387840D02*
D03*
X7912100D02*
D03*
Y4641840D02*
D03*
X7683500D02*
D03*
X7086600Y4387840D02*
D03*
X7315200D02*
D03*
X4432300Y5207000D02*
D03*
X4203700D02*
D03*
D81*
X10210800Y10121900D02*
D03*
Y9893300D02*
D03*
X9931400Y10121900D02*
D03*
Y9893300D02*
D03*
X9652000D02*
D03*
Y10121900D02*
D03*
X9585960Y7835900D02*
D03*
Y8064500D02*
D03*
X9347200Y6769100D02*
D03*
Y6997700D02*
D03*
X9649460D02*
D03*
Y6769100D02*
D03*
X9903460Y6997700D02*
D03*
Y6769100D02*
D03*
X10083800Y8102600D02*
D03*
Y8331200D02*
D03*
X9829800D02*
D03*
Y8102600D02*
D03*
X9331960Y7835900D02*
D03*
Y8064500D02*
D03*
X10388600Y7835900D02*
D03*
Y7607300D02*
D03*
X8051800Y6950100D02*
D03*
Y6721500D02*
D03*
X8331200Y6946900D02*
D03*
Y6718300D02*
D03*
X6070600Y8953500D02*
D03*
Y9182100D02*
D03*
X5791200Y8953500D02*
D03*
Y9182100D02*
D03*
X5486400Y4330700D02*
D03*
Y4787900D02*
D03*
Y4559300D02*
D03*
D82*
X9093200Y10033000D02*
D03*
X9171200Y9991000D02*
D03*
D83*
X9132200Y10126300D02*
D03*
Y9897700D02*
D03*
D84*
X4686300Y9115500D02*
D03*
D85*
Y9715500D02*
D03*
D86*
X4216300Y9415500D02*
D03*
D87*
X6096000Y4445000D02*
D03*
Y4699000D02*
D03*
X6680200Y4445000D02*
D03*
Y4699000D02*
D03*
X9423400Y9017000D02*
D03*
X9677400D02*
D03*
X6223000Y6553200D02*
D03*
X6731000D02*
D03*
X6477000D02*
D03*
X10922000Y7823200D02*
D03*
X4826000Y4254500D02*
D03*
Y4508500D02*
D03*
Y4762500D02*
D03*
X6096000Y4953000D02*
D03*
Y5207000D02*
D03*
Y5461000D02*
D03*
X8280400Y8077200D02*
D03*
X8026400D02*
D03*
D88*
X6680200Y4191000D02*
D03*
X6096000D02*
D03*
D89*
X10414000Y5153000D02*
D03*
X10214000D02*
D03*
X10014000D02*
D03*
X9814000D02*
D03*
X10414000Y4953000D02*
D03*
X10214000D02*
D03*
X10014000D02*
D03*
X9205101Y5153000D02*
D03*
X9005101D02*
D03*
X8805100D02*
D03*
X8605100D02*
D03*
X9205101Y4953000D02*
D03*
X9005101D02*
D03*
X8805100D02*
D03*
D90*
X9814000D02*
D03*
X8605100D02*
D03*
D91*
X10849000Y7396901D02*
D03*
Y7196901D02*
D03*
Y6996900D02*
D03*
Y6796900D02*
D03*
X11049000Y7396901D02*
D03*
Y7196901D02*
D03*
Y6996900D02*
D03*
X10849000Y6188000D02*
D03*
Y5988000D02*
D03*
Y5788000D02*
D03*
Y5588000D02*
D03*
X11049000Y6188000D02*
D03*
Y5988000D02*
D03*
Y5788000D02*
D03*
D92*
Y6796900D02*
D03*
Y5588000D02*
D03*
D93*
X11480800Y5029200D02*
D03*
X11734800D02*
D03*
D94*
X8296000Y9461500D02*
D03*
X10795000D02*
D03*
D95*
X10099500Y9319500D02*
D03*
D96*
X9961000Y9603500D02*
D03*
X9822500Y9319500D02*
D03*
X9684000Y9603500D02*
D03*
X9545500Y9319500D02*
D03*
X9407000Y9603500D02*
D03*
X9268500Y9319500D02*
D03*
X9130000Y9603500D02*
D03*
X8991500Y9319500D02*
D03*
D97*
X3500000Y10000000D02*
D03*
X11500000D02*
D03*
Y4500000D02*
D03*
D98*
X3619500Y8222500D02*
D03*
Y8572500D02*
D03*
D99*
X3260500Y4584500D02*
D03*
Y5448500D02*
D03*
D100*
X3678500Y4584500D02*
D03*
Y5448500D02*
D03*
D101*
X3625500Y5305500D02*
D03*
Y4727500D02*
D03*
%TF.MD5,6aaaabbe080d1ce0bec6412a14f172e3*%
M02*
