<?xml version="1.0" encoding="UTF-8" standalone="no"?>
<svg
   width="142.41319"
   height="119.532"
   stroke-width="1.87"
   viewBox="0 0 26.702474 22.41225"
   fill="none"
   color="#03234b"
   version="1.1"
   id="svg6"
   sodipodi:docname="antenna-signal-bg.svg"
   inkscape:version="1.2.1 (9c6d41e410, 2022-07-14)"
   xmlns:inkscape="http://www.inkscape.org/namespaces/inkscape"
   xmlns:sodipodi="http://sodipodi.sourceforge.net/DTD/sodipodi-0.dtd"
   xmlns="http://www.w3.org/2000/svg"
   xmlns:svg="http://www.w3.org/2000/svg">
  <defs
     id="defs10" />
  <sodipodi:namedview
     id="namedview8"
     pagecolor="#ffffff"
     bordercolor="#000000"
     borderopacity="0.25"
     inkscape:showpageshadow="2"
     inkscape:pageopacity="0.0"
     inkscape:pagecheckerboard="0"
     inkscape:deskcolor="#d1d1d1"
     showgrid="false"
     inkscape:zoom="3.3789063"
     inkscape:cx="67.77341"
     inkscape:cy="86.122543"
     inkscape:window-width="1920"
     inkscape:window-height="1011"
     inkscape:window-x="0"
     inkscape:window-y="32"
     inkscape:window-maximized="1"
     inkscape:current-layer="svg6" />
  <path
     id="rect291"
     style="fill:#ffffff;stroke-width:5.5587"
     sodipodi:type="inkscape:offset"
     inkscape:radius="7.5547261"
     inkscape:original="M -1.390625 1.9746094 L -1.390625 22.025391 L 25.390625 22.025391 L 25.390625 1.9746094 L -1.390625 1.9746094 z "
     d="M -1.390625,-5.5800781 A 7.5554816,7.5554816 0 0 0 -8.9453125,1.9746094 V 22.025391 a 7.5554816,7.5554816 0 0 0 7.5546875,7.554687 h 26.78125 a 7.5554816,7.5554816 0 0 0 7.554687,-7.554687 V 1.9746094 a 7.5554816,7.5554816 0 0 0 -7.554687,-7.5546875 z"
     transform="matrix(0.63743315,0,0,0.63743315,5.7020387,3.5569268)" />
  <path
     d="m 18.851236,7.2061246 c 0,0 1.5,1.5 1.5,4.0000004 0,2.5 -1.5,4 -1.5,4 m 3,-11.0000004 c 0,0 2.5,2.5 2.5,7.0000004 0,4.5 -2.5,7 -2.5,7 M 7.8512363,7.2061246 c 0,0 -1.5,1.5 -1.5,4.0000004 0,2.5 1.5,4 1.5,4 m -3,-11.0000004 c 0,0 -2.5,2.5 -2.5,7.0000004 0,4.5 2.5,7 2.5,7"
     stroke="#03234b"
     stroke-width="1.87"
     stroke-linecap="round"
     stroke-linejoin="round"
     id="path2" />
  <path
     d="m 13.351236,12.206125 a 1,1 0 1 0 0,-2 1,1 0 0 0 0,2 z"
     fill="#03234b"
     stroke="#03234b"
     stroke-width="1.87"
     stroke-linecap="round"
     stroke-linejoin="round"
     id="path4" />
</svg>
