%TF.GenerationSoftware,Altium Limited,Altium Designer,22.11.1 (43)*%
G04 Layer_Color=128*
%FSLAX45Y45*%
%MOMM*%
%TF.SameCoordinates,9BD4E140-E2B0-4EEC-85BD-7DB52909B6CD*%
%TF.FilePolarity,Positive*%
%TF.FileFunction,Paste,Bot*%
%TF.Part,Single*%
G01*
G75*
%TA.AperFunction,BGAPad,CuDef*%
%ADD10R,0.50000X0.50000*%
%TA.AperFunction,SMDPad,CuDef*%
G04:AMPARAMS|DCode=12|XSize=0.56mm|YSize=0.62mm|CornerRadius=0.07mm|HoleSize=0mm|Usage=FLASHONLY|Rotation=90.000|XOffset=0mm|YOffset=0mm|HoleType=Round|Shape=RoundedRectangle|*
%AMROUNDEDRECTD12*
21,1,0.56000,0.48000,0,0,90.0*
21,1,0.42000,0.62000,0,0,90.0*
1,1,0.14000,0.24000,0.21000*
1,1,0.14000,0.24000,-0.21000*
1,1,0.14000,-0.24000,-0.21000*
1,1,0.14000,-0.24000,0.21000*
%
%ADD12ROUNDEDRECTD12*%
D10*
X7674600Y8552200D02*
D03*
Y8632200D02*
D03*
Y8712200D02*
D03*
Y8792200D02*
D03*
Y8872200D02*
D03*
X7594600D02*
D03*
X7514600D02*
D03*
Y8792200D02*
D03*
Y8712200D02*
D03*
Y8632200D02*
D03*
Y8552200D02*
D03*
X7594600D02*
D03*
D12*
X7823200Y8613400D02*
D03*
Y8709400D02*
D03*
X7594600Y8356600D02*
D03*
Y8260600D02*
D03*
%TF.MD5,2381c054f3f5629c5d3f640076a27fca*%
M02*
